(module Bandpass_Hairpin_7th_9840MHz_1800MHz (layer F.Cu) (tedit 6170E9CB)
  (descr "FP StepUp generated footprint")
  (attr smd)
  (fp_text reference REF** (at 0 -4) (layer F.SilkS)
    (effects (font (size 1 1) (thickness 0.15)))
  )
  (fp_text value "Value " (at 0 -3) (layer F.SilkS) hide
    (effects (font (size 0.8 0.8) (thickness 0.12)))
  )
  (fp_text user %R (at 0 -4) (layer F.Fab)
    (effects (font (size 1 1) (thickness 0.15)))
  )
  (fp_text user "RO4003 LoPro 220um" (at 0 3.175) (layer Cmts.User)
    (effects (font (size 1 1) (thickness 0.15)))
  )
  (pad 1 smd custom (at -6.258 1.553) (size 0.2 0.2) (layers F.Cu F.Mask)
    (zone_connect 0)
    (options (clearance outline) (anchor circle))
    (primitives
      (gr_poly (pts
         (xy 2.378 -3.925) (xy 2.158 -3.925) (xy 2.158 0.6) (xy 1.278 0.6) (xy 1.278 -3.586)
         (xy 1.058 -3.586) (xy 1.058 -0.063) (xy 0.77 -0.064) (xy 0.77 -0.23) (xy -0.23 -0.23)
         (xy -0.23 0.23) (xy 0.77 0.23) (xy 0.77 0.063) (xy 1.058 0.063) (xy 1.058 0.6)
         (xy 1.278 0.82) (xy 2.158 0.82) (xy 2.378 0.6)) (width 0))
    ))
  (pad "#" smd custom (at -3.619 2.236) (size 0.072 0.072) (layers F.Cu F.Mask)
    (zone_connect 0)
    (options (clearance outline) (anchor circle))
    (primitives
      (gr_poly (pts
         (xy 1.209 0.136) (xy 0.989 0.136) (xy 0.989 -4.389) (xy 0.109 -4.389) (xy 0.109 0.136)
         (xy -0.111 0.136) (xy -0.111 -4.389) (xy 0.109 -4.609) (xy 0.989 -4.609) (xy 1.209 -4.389)
) (width 0))
    ))
  (pad "#" smd custom (at -1.448 2.285) (size 0.048 0.048) (layers F.Cu F.Mask)
    (zone_connect 0)
    (options (clearance outline) (anchor circle))
    (primitives
      (gr_poly (pts
         (xy -0.752 -4.658) (xy -0.532 -4.658) (xy -0.532 -0.132) (xy 0.348 -0.132) (xy 0.348 -4.658)
         (xy 0.568 -4.658) (xy 0.568 -0.132) (xy 0.348 0.088) (xy -0.532 0.088) (xy -0.752 -0.132)
) (width 0))
    ))
  (pad "#" smd custom (at -0.546 2.285) (size 0.117 0.117) (layers F.Cu F.Mask)
    (zone_connect 0)
    (options (clearance outline) (anchor circle))
    (primitives
      (gr_poly (pts
         (xy 1.206 0.088) (xy 0.986 0.088) (xy 0.986 -4.438) (xy 0.106 -4.438) (xy 0.106 0.088)
         (xy -0.114 0.088) (xy -0.114 -4.438) (xy 0.106 -4.658) (xy 0.986 -4.658) (xy 1.206 -4.438)
) (width 0))
    ))
  (pad 2 smd custom (at 6.258 1.553) (size 0.2 0.2) (layers F.Cu F.Mask)
    (zone_connect 0)
    (options (clearance outline) (anchor circle))
    (primitives
      (gr_poly (pts
         (xy -2.378 -3.925) (xy -2.158 -3.925) (xy -2.158 0.6) (xy -1.278 0.6) (xy -1.278 -3.586)
         (xy -1.058 -3.586) (xy -1.058 -0.063) (xy -0.77 -0.064) (xy -0.77 -0.23) (xy 0.23 -0.23)
         (xy 0.23 0.23) (xy -0.77 0.23) (xy -0.77 0.063) (xy -1.058 0.063) (xy -1.058 0.6)
         (xy -1.278 0.82) (xy -2.158 0.82) (xy -2.378 0.6)) (width 0))
    ))
  (pad "#" smd custom (at 2.511 2.269) (size 0.097 0.097) (layers F.Cu F.Mask)
    (zone_connect 0)
    (options (clearance outline) (anchor circle))
    (primitives
      (gr_poly (pts
         (xy -0.101 0.104) (xy 0.119 0.104) (xy 0.119 -4.422) (xy 0.998 -4.422) (xy 0.998 0.104)
         (xy 1.219 0.104) (xy 1.219 -4.422) (xy 0.998 -4.642) (xy 0.119 -4.642) (xy -0.101 -4.422)
) (width 0))
    ))
  (pad "#" smd custom (at 1.532 2.281) (size 0.121 0.121) (layers F.Cu F.Mask)
    (zone_connect 0)
    (options (clearance outline) (anchor circle))
    (primitives
      (gr_poly (pts
         (xy 0.668 -4.654) (xy 0.448 -4.654) (xy 0.448 -0.128) (xy -0.432 -0.128) (xy -0.432 -4.654)
         (xy -0.652 -4.654) (xy -0.652 -0.128) (xy -0.432 0.092) (xy 0.448 0.092) (xy 0.668 -0.128)
) (width 0))
    ))
  (model /home/dominik/Documents/mnt/projects/kt_kicad/Footprints/KT_Planar_Structures.pretty/FP.wrl
    (at (xyz 0 0 0))
    (scale (xyz 1 1 1))
    (rotate (xyz 0 0 0))
  )
)
