(module Notch_Stub_3rd_4700MHz_1600MHz (layer F.Cu) (tedit 611D52B1)
  (descr "PEC StepUp generated footprint")
  (clearance 0.01)
  (attr smd)
  (fp_text reference REF** (at 5 -1) (layer F.SilkS)
    (effects (font (size 1 1) (thickness 0.15)))
  )
  (fp_text value "Value " (at 5 -2) (layer F.SilkS) hide
    (effects (font (size 0.8 0.8) (thickness 0.12)))
  )
  (fp_poly (pts (xy 23.98 0.298) (xy 23.913 0.298) (xy 23.913 -0.298) (xy 23.98 -0.298)) (layer F.Cu) (width 0))
  (fp_text user %R (at 5 -1) (layer F.Fab)
    (effects (font (size 1 1) (thickness 0.15)))
  )
  (fp_text user "Er 3.38, 254um" (at 12.796 -1.18) (layer Cmts.User)
    (effects (font (size 1 1) (thickness 0.15)))
  )
  (pad 2 smd custom (at 24.213 0) (size 0.5 0.5) (layers F.Cu F.Mask)
    (zone_connect 0)
    (options (clearance outline) (anchor circle))
    (primitives
      (gr_poly (pts
         (xy 0.25 -0.2983) (xy 0.25 0.2983) (xy -0.25 0.2983) (xy -0.25 -0.2983)) (width 0))
    ))
  (pad 1 smd custom (at 0.22 0) (size 0.44 0.44) (layers F.Cu F.Mask)
    (zone_connect 0)
    (options (clearance outline) (anchor circle))
    (primitives
      (gr_poly (pts
         (xy 1.780129 0.2983) (xy 1.780129 10.357352) (xy 1.970668 10.357352) (xy 1.970668 0.2983) (xy 11.641391 0.2983)
         (xy 11.641391 10.64878) (xy 11.831929 10.64878) (xy 11.831929 0.2983) (xy 21.502652 0.2983) (xy 21.502652 10.357352)
         (xy 21.693191 10.357352) (xy 21.693191 0.2983) (xy 23.693191 0.2983) (xy 23.693191 -0.2983) (xy -0.219871 -0.2983)
         (xy -0.219871 0.2983)) (width 0))
    ))
  (model D:\SVN\kt_kicad\Footprints\KT_Sicoya.pretty\PEC.wrl
    (at (xyz 0 0 0))
    (scale (xyz 1 1 1))
    (rotate (xyz 0 0 0))
  )
)
