(module Notch_Stub_3rd_9400MHz_3200MHz (layer F.Cu) (tedit 6141E77B)
  (descr "Footprint StepUp generated footprint")
  (tags "net tie")
  (attr smd)
  (fp_text reference REF** (at 7 -4) (layer F.SilkS)
    (effects (font (size 1 1) (thickness 0.15)))
  )
  (fp_text value "Value " (at 7 -3) (layer F.SilkS) hide
    (effects (font (size 0.8 0.8) (thickness 0.12)))
  )
  (fp_poly (pts (xy 12.745 0.23) (xy 12.745 -0.23) (xy 13.787 -0.23) (xy 13.787 0.23)) (layer F.Cu) (width 0))
  (fp_poly (pts (xy 12.745 0.23) (xy 12.745 -0.23) (xy 13.787 -0.23) (xy 13.787 0.23)) (layer F.Mask) (width 0))
  (fp_text user %R (at 7 -4) (layer F.Fab)
    (effects (font (size 1 1) (thickness 0.15)))
  )
  (fp_text user "Er 3.5, 220um" (at 6.35 -0.99) (layer Cmts.User)
    (effects (font (size 1 1) (thickness 0.15)))
  )
  (pad 1 smd custom (at 0.23 0) (size 0.46 0.46) (layers F.Cu F.Mask)
    (zone_connect 0)
    (options (clearance outline) (anchor circle))
    (primitives
      (gr_poly (pts
         (xy -0.23 0.23) (xy 1.77 0.23) (xy 1.77 5.132) (xy 1.92 5.132) (xy 1.92 0.23)
         (xy 6.588 0.23) (xy 6.588 5.132) (xy 6.738 5.132) (xy 6.738 0.23) (xy 11.407 0.23)
         (xy 11.407 5.132) (xy 11.557 5.132) (xy 11.557 0.23) (xy 12.876 0.23) (xy 12.876 -0.23)
         (xy -0.23 -0.23)) (width 0))
    ))
  (pad 2 smd circle (at 13.557 0) (size 0.46 0.46) (layers F.Cu F.Mask))
  (model /home/dominik/Documents/mnt/projects/kt_kicad/Footprints/KT_Planar_Structures.pretty/Footprint.wrl
    (at (xyz 0 0 0))
    (scale (xyz 1 1 1))
    (rotate (xyz 0 0 0))
  )
)
