(module PE43705_wo_vias (layer F.Cu) (tedit 61791614)
  (attr smd)
  (fp_text reference REF** (at 0 -4.05) (layer F.SilkS)
    (effects (font (size 1 1) (thickness 0.15)))
  )
  (fp_text value PE43705 (at 0 4.05) (layer F.Fab)
    (effects (font (size 1 1) (thickness 0.15)))
  )
  (fp_line (start -3.05 3.05) (end -3.05 -3.05) (layer F.CrtYd) (width 0.05))
  (fp_line (start 3.05 3.05) (end -3.05 3.05) (layer F.CrtYd) (width 0.05))
  (fp_line (start 3.05 -3.05) (end 3.05 3.05) (layer F.CrtYd) (width 0.05))
  (fp_line (start -3.05 -3.05) (end 3.05 -3.05) (layer F.CrtYd) (width 0.05))
  (fp_line (start -2.25 -2.65) (end -2.7875 -2.65) (layer F.SilkS) (width 0.12))
  (fp_line (start -2.65 2.65) (end -2.65 2.25) (layer F.SilkS) (width 0.12))
  (fp_line (start -2.25 2.65) (end -2.65 2.65) (layer F.SilkS) (width 0.12))
  (fp_line (start 2.65 2.65) (end 2.65 2.25) (layer F.SilkS) (width 0.12))
  (fp_line (start 2.25 2.65) (end 2.65 2.65) (layer F.SilkS) (width 0.12))
  (fp_line (start 2.65 -2.65) (end 2.65 -2.25) (layer F.SilkS) (width 0.12))
  (fp_line (start 2.25 -2.65) (end 2.65 -2.65) (layer F.SilkS) (width 0.12))
  (fp_line (start 2.5 -2.5) (end -1.5 -2.5) (layer F.Fab) (width 0.15))
  (fp_line (start 2.5 2.5) (end 2.5 -2.5) (layer F.Fab) (width 0.15))
  (fp_line (start -2.5 2.5) (end 2.5 2.5) (layer F.Fab) (width 0.15))
  (fp_line (start -2.5 -1.5) (end -2.5 2.5) (layer F.Fab) (width 0.15))
  (fp_line (start -1.5 -2.5) (end -2.5 -1.5) (layer F.Fab) (width 0.15))
  (pad 32 smd oval (at -1.75 -2.5) (size 0.29 1.15) (layers F.Cu F.Paste F.Mask)
    (solder_paste_margin_ratio -0.2))
  (pad 31 smd oval (at -1.25 -2.5) (size 0.29 1.15) (layers F.Cu F.Paste F.Mask)
    (solder_paste_margin_ratio -0.2))
  (pad 30 smd oval (at -0.75 -2.5) (size 0.29 1.15) (layers F.Cu F.Paste F.Mask)
    (solder_paste_margin_ratio -0.2))
  (pad 29 smd oval (at -0.25 -2.5) (size 0.29 1.15) (layers F.Cu F.Paste F.Mask)
    (solder_paste_margin_ratio -0.2))
  (pad 28 smd oval (at 0.25 -2.5) (size 0.29 1.15) (layers F.Cu F.Paste F.Mask)
    (solder_paste_margin_ratio -0.2))
  (pad 27 smd oval (at 0.75 -2.5) (size 0.29 1.15) (layers F.Cu F.Paste F.Mask)
    (solder_paste_margin_ratio -0.2))
  (pad 26 smd oval (at 1.25 -2.5) (size 0.29 1.15) (layers F.Cu F.Paste F.Mask)
    (solder_paste_margin_ratio -0.2))
  (pad 24 smd oval (at 2.5 -1.75 270) (size 0.29 1.15) (layers F.Cu F.Paste F.Mask)
    (solder_paste_margin_ratio -0.2))
  (pad 23 smd oval (at 2.5 -1.25 270) (size 0.29 1.15) (layers F.Cu F.Paste F.Mask)
    (solder_paste_margin_ratio -0.2))
  (pad 22 smd oval (at 2.5 -0.75 270) (size 0.29 1.15) (layers F.Cu F.Paste F.Mask)
    (solder_paste_margin_ratio -0.2))
  (pad 21 smd oval (at 2.5 -0.25 270) (size 0.29 1.15) (layers F.Cu F.Paste F.Mask)
    (solder_paste_margin_ratio -0.2))
  (pad 20 smd oval (at 2.5 0.25 270) (size 0.29 1.15) (layers F.Cu F.Paste F.Mask)
    (solder_paste_margin_ratio -0.2))
  (pad 19 smd oval (at 2.5 0.75 270) (size 0.29 1.15) (layers F.Cu F.Paste F.Mask)
    (solder_paste_margin_ratio -0.2))
  (pad 18 smd oval (at 2.5 1.25 270) (size 0.29 1.15) (layers F.Cu F.Paste F.Mask)
    (solder_paste_margin_ratio -0.2))
  (pad 25 smd oval (at 1.75 -2.5) (size 0.29 1.15) (layers F.Cu F.Paste F.Mask)
    (solder_paste_margin_ratio -0.2))
  (pad 17 smd oval (at 2.5 1.75 270) (size 0.29 1.15) (layers F.Cu F.Paste F.Mask)
    (solder_paste_margin_ratio -0.2))
  (pad 16 smd oval (at 1.75 2.5 180) (size 0.29 1.15) (layers F.Cu F.Paste F.Mask)
    (solder_paste_margin_ratio -0.2))
  (pad 15 smd oval (at 1.25 2.5 180) (size 0.29 1.15) (layers F.Cu F.Paste F.Mask)
    (solder_paste_margin_ratio -0.2))
  (pad 14 smd oval (at 0.75 2.5 180) (size 0.29 1.15) (layers F.Cu F.Paste F.Mask)
    (solder_paste_margin_ratio -0.2))
  (pad 13 smd oval (at 0.25 2.5 180) (size 0.29 1.15) (layers F.Cu F.Paste F.Mask)
    (solder_paste_margin_ratio -0.2))
  (pad 12 smd oval (at -0.25 2.5 180) (size 0.29 1.15) (layers F.Cu F.Paste F.Mask)
    (solder_paste_margin_ratio -0.2))
  (pad 11 smd oval (at -0.75 2.5 180) (size 0.29 1.15) (layers F.Cu F.Paste F.Mask)
    (solder_paste_margin_ratio -0.2))
  (pad 10 smd oval (at -1.25 2.5 180) (size 0.29 1.15) (layers F.Cu F.Paste F.Mask)
    (solder_paste_margin_ratio -0.2))
  (pad 9 smd oval (at -1.75 2.5 180) (size 0.29 1.15) (layers F.Cu F.Paste F.Mask)
    (solder_paste_margin_ratio -0.2))
  (pad 8 smd oval (at -2.5 1.75 90) (size 0.29 1.15) (layers F.Cu F.Paste F.Mask)
    (solder_paste_margin_ratio -0.2))
  (pad 7 smd oval (at -2.5 1.25 90) (size 0.29 1.15) (layers F.Cu F.Paste F.Mask)
    (solder_paste_margin_ratio -0.2))
  (pad 6 smd oval (at -2.5 0.75 90) (size 0.29 1.15) (layers F.Cu F.Paste F.Mask)
    (solder_paste_margin_ratio -0.2))
  (pad 5 smd oval (at -2.5 0.25 90) (size 0.29 1.15) (layers F.Cu F.Paste F.Mask)
    (solder_paste_margin_ratio -0.2))
  (pad 4 smd oval (at -2.5 -0.25 90) (size 0.29 1.15) (layers F.Cu F.Paste F.Mask)
    (solder_paste_margin_ratio -0.2))
  (pad 3 smd oval (at -2.5 -0.75 90) (size 0.29 1.15) (layers F.Cu F.Paste F.Mask)
    (solder_paste_margin_ratio -0.2))
  (pad 2 smd oval (at -2.5 -1.25 90) (size 0.29 1.15) (layers F.Cu F.Paste F.Mask)
    (solder_paste_margin_ratio -0.2))
  (pad 1 smd oval (at -2.5 -1.75 90) (size 0.29 1.15) (layers F.Cu F.Paste F.Mask)
    (solder_paste_margin_ratio -0.2))
  (pad 33 smd rect (at 0 0) (size 3.3 3.3) (layers F.Cu F.Paste F.Mask)
    (solder_paste_margin -0.75))
)
