(module TB522-100.0M (layer F.Cu) (tedit 5D8F083D)
  (clearance 0.127)
  (fp_text reference U1 (at -3 -2.5) (layer F.SilkS)
    (effects (font (size 1 1) (thickness 0.15)))
  )
  (fp_text value TB522-100.0M (at 0.25 -6) (layer F.Fab)
    (effects (font (size 1 1) (thickness 0.15)))
  )
  (fp_line (start -4 -3.25) (end -4 3.25) (layer F.CrtYd) (width 0.12))
  (fp_line (start -4 3.25) (end 4 3.25) (layer F.CrtYd) (width 0.12))
  (fp_line (start 4 3.25) (end 4 -3.25) (layer F.CrtYd) (width 0.12))
  (fp_line (start 4 -3.25) (end -4 -3.25) (layer F.CrtYd) (width 0.12))
  (fp_line (start -3.5 -3.75) (end -2.75 -3.75) (layer F.SilkS) (width 0.15))
  (fp_line (start -2 -3.75) (end -1.25 -3.75) (layer F.SilkS) (width 0.15))
  (fp_line (start -0.5 -3.75) (end 0.25 -3.75) (layer F.SilkS) (width 0.15))
  (fp_circle (center -3 2.5) (end -3 2.5) (layer F.SilkS) (width 0.5))
  (pad 2 smd rect (at 0 2.09 180) (size 0.76 1.28) (layers F.Cu F.Paste F.Mask))
  (pad 3 smd rect (at 1.27 2.09 180) (size 0.76 1.28) (layers F.Cu F.Paste F.Mask))
  (pad 1 smd rect (at -1.27 2.09 180) (size 0.76 1.28) (layers F.Cu F.Paste F.Mask))
  (pad 7 smd rect (at 0 -2.09) (size 0.76 1.28) (layers F.Cu F.Paste F.Mask))
  (pad 6 smd rect (at 1.27 -2.09) (size 0.76 1.28) (layers F.Cu F.Paste F.Mask))
  (pad 8 smd rect (at -1.27 -2.09) (size 0.76 1.28) (layers F.Cu F.Paste F.Mask))
  (pad 5 smd rect (at 3.105 -1.27 90) (size 0.76 1.28) (layers F.Cu F.Paste F.Mask))
  (pad 4 smd rect (at 3.105 1.27 90) (size 0.76 1.28) (layers F.Cu F.Paste F.Mask))
  (pad 10 smd rect (at -3.105 1.27 90) (size 0.76 1.28) (layers F.Cu F.Paste F.Mask))
  (pad 9 smd rect (at -3.105 -1.27 90) (size 0.76 1.28) (layers F.Cu F.Paste F.Mask))
)
