(module 90-Deg-Bend (layer F.Cu) (tedit 5CF82CAD)
  (fp_text reference REF** (at 0 -6.5) (layer F.SilkS)
    (effects (font (size 1 1) (thickness 0.15)))
  )
  (fp_text value 90-Deg-Bend (at 0 -7.5) (layer F.Fab)
    (effects (font (size 1 1) (thickness 0.15)))
  )
  (pad 1 smd custom (at 0 0.25) (size 0.79 0.5) (layers F.Cu)
    (options (clearance outline) (anchor rect))
    (primitives
      (gr_arc (start 2.5 -0.25) (end 2.5 -2.75) (angle -90) (width 0.79))
    ))
  (pad 2 smd rect (at 2.72 -2.5 90) (size 0.79 0.5) (layers F.Cu))
)
