(module 61500814221 (layer F.Cu) (tedit 6213D7F8)
  (descr 615008144221_2020)
  (tags Connector)
  (fp_text reference J** (at -4.8 -5.6) (layer F.SilkS)
    (effects (font (size 1.27 1.27) (thickness 0.254)))
  )
  (fp_text value 61500814221 (at 4.053 4.65) (layer F.SilkS) hide
    (effects (font (size 1.27 1.27) (thickness 0.254)))
  )
  (fp_line (start -4.2 12.6) (end 13.1 12.6) (layer Dwgs.User) (width 0.12))
  (fp_line (start -4.8 13) (end -4.8 17.1) (layer Dwgs.User) (width 0.12))
  (fp_circle (center -4.5 -0.006225) (end -4.1 0.693775) (layer F.SilkS) (width 0.12))
  (fp_line (start 13.7 13) (end 13.7 17.1) (layer Dwgs.User) (width 0.12))
  (fp_line (start -4.8 17.1) (end 13.7 17.1) (layer Dwgs.User) (width 0.12))
  (fp_line (start -4.475 -3.55) (end 13.365 -3.55) (layer F.Fab) (width 0.2))
  (fp_line (start 13.365 -3.55) (end 13.365 12.85) (layer F.Fab) (width 0.2))
  (fp_line (start 13.365 12.85) (end -4.475 12.85) (layer F.Fab) (width 0.2))
  (fp_line (start -4.475 12.85) (end -4.475 -3.55) (layer F.Fab) (width 0.2))
  (fp_line (start -4.8 -4.55) (end 13.7 -4.55) (layer F.CrtYd) (width 0.1))
  (fp_line (start 13.7 -4.55) (end 13.7 13) (layer F.CrtYd) (width 0.1))
  (fp_line (start 13.7 13) (end -4.8 13) (layer F.CrtYd) (width 0.1))
  (fp_line (start -4.8 13) (end -4.8 -4.55) (layer F.CrtYd) (width 0.1))
  (fp_line (start -4.475 10.35) (end -4.475 -3.55) (layer F.SilkS) (width 0.1))
  (fp_line (start -4.475 -3.55) (end 13.365 -3.55) (layer F.SilkS) (width 0.1))
  (fp_line (start 13.365 -3.55) (end 13.365 10.35) (layer F.SilkS) (width 0.1))
  (fp_line (start -4.475 11.85) (end -4.475 12.85) (layer F.SilkS) (width 0.1))
  (fp_line (start -4.475 12.85) (end 13.365 12.85) (layer F.SilkS) (width 0.1))
  (fp_line (start 13.365 12.85) (end 13.365 11.85) (layer F.SilkS) (width 0.1))
  (fp_text user %R (at 4.053 4.65) (layer F.Fab)
    (effects (font (size 1.27 1.27) (thickness 0.254)))
  )
  (fp_text user "PCB Edge" (at 4.8 11.7) (layer Dwgs.User)
    (effects (font (size 1 1) (thickness 0.15)))
  )
  (pad 1 thru_hole circle (at 0 0) (size 1.45 1.45) (drill 0.9) (layers *.Cu *.Mask))
  (pad 2 thru_hole circle (at 1.27 -2.54) (size 1.45 1.45) (drill 0.9) (layers *.Cu *.Mask))
  (pad 3 thru_hole circle (at 2.54 0) (size 1.45 1.45) (drill 0.9) (layers *.Cu *.Mask))
  (pad 4 thru_hole circle (at 3.81 -2.54) (size 1.45 1.45) (drill 0.9) (layers *.Cu *.Mask))
  (pad 5 thru_hole circle (at 5.08 0) (size 1.45 1.45) (drill 0.9) (layers *.Cu *.Mask))
  (pad 6 thru_hole circle (at 6.35 -2.54) (size 1.45 1.45) (drill 0.9) (layers *.Cu *.Mask))
  (pad 7 thru_hole circle (at 7.62 0) (size 1.45 1.45) (drill 0.9) (layers *.Cu *.Mask))
  (pad 8 thru_hole circle (at 8.89 -2.54) (size 1.45 1.45) (drill 0.9) (layers *.Cu *.Mask))
  (pad SH thru_hole circle (at -3.305 10.92) (size 2.4 2.4) (drill 1.6) (layers *.Cu *.Mask))
  (pad SH thru_hole circle (at 12.195 10.92) (size 2.4 2.4) (drill 1.6) (layers *.Cu *.Mask))
  (pad MH3 np_thru_hole circle (at -1.27 6.35) (size 3.17 0) (drill 3.17) (layers *.Cu *.Mask))
  (pad MH4 np_thru_hole circle (at 10.16 6.35) (size 3.17 0) (drill 3.17) (layers *.Cu *.Mask))
  (model ${KT_LIBS}/3D/61500814221.stp
    (offset (xyz 4.4 1.1 6.5))
    (scale (xyz 1 1 1))
    (rotate (xyz -90 0 90))
  )
)
