(module Phoenix_1x2_MC_1,5_2-GF-3,81 (layer F.Cu) (tedit 61D6AB71)
  (fp_text reference REF** (at 8.8 -2) (layer F.SilkS)
    (effects (font (size 1 1) (thickness 0.15)))
  )
  (fp_text value Phoenix_1x2_MC_1,5_2-GF-3,81 (at 0 8.9) (layer F.Fab)
    (effects (font (size 1 1) (thickness 0.15)))
  )
  (fp_line (start -1 1.3) (end 1 1.3) (layer F.SilkS) (width 0.12))
  (fp_line (start -1 -1.5) (end 1 -1.5) (layer F.SilkS) (width 0.12))
  (fp_line (start -7.1 8) (end -7.1 -1.2) (layer F.SilkS) (width 0.12))
  (fp_line (start 11.1 8) (end -7.1 8) (layer F.SilkS) (width 0.12))
  (fp_line (start 11.1 -1.2) (end 11.1 8) (layer F.SilkS) (width 0.12))
  (fp_line (start -7.1 -1.2) (end 11.1 -1.2) (layer F.SilkS) (width 0.12))
  (fp_line (start 11.1 8) (end 11.1 -1.2) (layer F.CrtYd) (width 0.12))
  (fp_line (start -7.1 8) (end 11.1 8) (layer F.CrtYd) (width 0.12))
  (fp_line (start -7.1 -1.2) (end -7.1 8) (layer F.CrtYd) (width 0.12))
  (fp_line (start -7.1 -1.2) (end 11.1 -1.2) (layer F.CrtYd) (width 0.12))
  (pad 1 thru_hole circle (at 0 0) (size 2.1 2.1) (drill 1.2) (layers *.Cu *.Mask))
  (pad 2 thru_hole circle (at 3.81 0) (size 2.1 2.1) (drill 1.2) (layers *.Cu *.Mask))
  (pad "" thru_hole circle (at -4.5 0.9) (size 2.8 2.8) (drill 2.4) (layers *.Cu *.Mask))
  (pad "" thru_hole circle (at 8.31 0.9) (size 2.8 2.8) (drill 2.4) (layers *.Cu *.Mask))
  (model ${KT_LIBS}/3D/pxc_1827868_08_MC-1-5-2-GF-3-81_3D.stp
    (offset (xyz 0 1.2 0))
    (scale (xyz 1 1 1))
    (rotate (xyz -90 0 90))
  )
  (model ${KT_LIBS}/3D/1827703_06.stp
    (offset (xyz -2.5 -9 -3.4))
    (scale (xyz 1 1 1))
    (rotate (xyz -90 0 90))
  )
)
