(module Pinheader_1x2_RM2.54_Vertical_Slim_CrtYd (layer F.Cu) (tedit 618AA7D5)
  (fp_text reference REF** (at 0 -3.2) (layer F.SilkS)
    (effects (font (size 1 1) (thickness 0.15)))
  )
  (fp_text value PinHeader_1x02_P2.54mm_Vertical_Slim_CrtYd (at 0 3.9) (layer F.Fab)
    (effects (font (size 1 1) (thickness 0.15)))
  )
  (fp_line (start -1.33 -1) (end -1.33 -2.33) (layer F.SilkS) (width 0.12))
  (fp_line (start -0.635 -2.27) (end 1.27 -2.27) (layer F.Fab) (width 0.1))
  (fp_line (start -1.27 2.81) (end -1.27 -1.635) (layer F.Fab) (width 0.1))
  (fp_line (start 1.27 2.81) (end -1.27 2.81) (layer F.Fab) (width 0.1))
  (fp_line (start -1.27 -1.635) (end -0.635 -2.27) (layer F.Fab) (width 0.1))
  (fp_line (start -1.33 0.27) (end -1.33 2.87) (layer F.SilkS) (width 0.12))
  (fp_line (start 1.4 -2.4) (end -1.4 -2.4) (layer F.CrtYd) (width 0.05))
  (fp_line (start 1.4 2.9) (end 1.4 -2.4) (layer F.CrtYd) (width 0.05))
  (fp_line (start -1.33 -2.33) (end 0 -2.33) (layer F.SilkS) (width 0.12))
  (fp_line (start -1.4 -2.4) (end -1.4 2.9) (layer F.CrtYd) (width 0.05))
  (fp_line (start -1.4 2.9) (end 1.4 2.9) (layer F.CrtYd) (width 0.05))
  (fp_line (start 1.33 0.27) (end 1.33 2.87) (layer F.SilkS) (width 0.12))
  (fp_line (start -1.33 0.27) (end 1.33 0.27) (layer F.SilkS) (width 0.12))
  (fp_line (start -1.33 2.87) (end 1.33 2.87) (layer F.SilkS) (width 0.12))
  (fp_line (start 1.27 -2.27) (end 1.27 2.81) (layer F.Fab) (width 0.1))
  (pad 2 thru_hole oval (at 0 1.54) (size 1.7 1.7) (drill 1) (layers *.Cu *.Mask))
  (pad 1 thru_hole rect (at 0 -1) (size 1.7 1.7) (drill 1) (layers *.Cu *.Mask))
  (model ${KISYS3DMOD}/Connector_PinHeader_2.54mm.3dshapes/PinHeader_1x02_P2.54mm_Vertical.step
    (offset (xyz 0 1 0))
    (scale (xyz 1 1 1))
    (rotate (xyz 0 0 0))
  )
)
