(module SlimStack_02x_03_M (layer F.Cu) (tedit 618A6BD3)
  (clearance 0.05)
  (fp_text reference REF** (at 0.01 2.08) (layer F.SilkS)
    (effects (font (size 1 1) (thickness 0.15)))
  )
  (fp_text value SlimStack_02x_03_M (at -0.01 -1.88) (layer F.Fab)
    (effects (font (size 1 1) (thickness 0.15)))
  )
  (pad 6 smd rect (at 0.35 0.95 180) (size 0.16 0.36) (layers F.Cu F.Paste F.Mask))
  (pad 4 smd rect (at 0 0.95 180) (size 0.16 0.36) (layers F.Cu F.Paste F.Mask))
  (pad 2 smd rect (at -0.35 0.95 180) (size 0.16 0.36) (layers F.Cu F.Paste F.Mask))
  (pad 1 smd rect (at -0.35 -0.95) (size 0.16 0.36) (layers F.Cu F.Paste F.Mask))
  (pad 3 smd rect (at 0 -0.95) (size 0.16 0.36) (layers F.Cu F.Paste F.Mask))
  (pad 5 smd rect (at 0.35 -0.95) (size 0.16 0.36) (layers F.Cu F.Paste F.Mask))
  (pad 7 smd rect (at -1.63 0.48) (size 0.36 0.34) (layers F.Cu F.Paste F.Mask))
  (pad 7 smd rect (at -1.63 -0.48) (size 0.36 0.34) (layers F.Cu F.Paste F.Mask))
  (pad 7 smd rect (at 1.63 -0.48) (size 0.36 0.34) (layers F.Cu F.Paste F.Mask))
  (pad 7 smd rect (at 1.63 0.48) (size 0.36 0.34) (layers F.Cu F.Paste F.Mask))
  (model ${KT_LIBS}/3D/5050660622.stp
    (at (xyz 0 0 0))
    (scale (xyz 1 1 1))
    (rotate (xyz -90 0 0))
  )
)
