(module SlimStack_02x_03_F (layer F.Cu) (tedit 618A6BE2)
  (clearance 0.05)
  (fp_text reference REF** (at 0.01 2.08) (layer F.SilkS)
    (effects (font (size 1 1) (thickness 0.15)))
  )
  (fp_text value SlimStack_02x_03_F (at 0.55 -1.94) (layer F.Fab)
    (effects (font (size 1 1) (thickness 0.15)))
  )
  (pad 7 smd rect (at -0.725 0.765) (size 0.21 0.48) (layers F.Cu F.Paste F.Mask))
  (pad 6 smd rect (at 0.35 -0.91) (size 0.16 0.44) (layers F.Cu F.Paste F.Mask))
  (pad 4 smd rect (at 0 -0.91) (size 0.16 0.44) (layers F.Cu F.Paste F.Mask))
  (pad 2 smd rect (at -0.35 -0.91) (size 0.16 0.44) (layers F.Cu F.Paste F.Mask))
  (pad 1 smd rect (at -0.35 0.91 180) (size 0.16 0.44) (layers F.Cu F.Paste F.Mask))
  (pad 3 smd rect (at 0 0.91 180) (size 0.16 0.44) (layers F.Cu F.Paste F.Mask))
  (pad 5 smd rect (at 0.35 0.91 180) (size 0.16 0.44) (layers F.Cu F.Paste F.Mask))
  (pad 7 smd rect (at 0.725 -0.765 180) (size 0.21 0.48) (layers F.Cu F.Paste F.Mask))
  (pad 7 smd rect (at 0.725 0.765) (size 0.21 0.48) (layers F.Cu F.Paste F.Mask))
  (pad 7 smd rect (at -0.725 -0.765 180) (size 0.21 0.48) (layers F.Cu F.Paste F.Mask))
  (model ${KT_LIBS}/3D/5050700622.stp
    (at (xyz 0 0 0))
    (scale (xyz 1 1 1))
    (rotate (xyz -90 0 0))
  )
)
