(module TDFN6 (layer F.Cu) (tedit 60200B4C)
  (attr smd)
  (fp_text reference TDFN6 (at -0.9144 -3.0988) (layer F.SilkS) hide
    (effects (font (size 1 1) (thickness 0.15)))
  )
  (fp_text value REF** (at 0 2.31) (layer F.SilkS)
    (effects (font (size 1 1) (thickness 0.15)))
  )
  (fp_circle (center -1.4732 -1.11211) (end -1.4732 -1.11211) (layer F.SilkS) (width 0.3))
  (fp_line (start -0.9 0.6) (end 0.9 0.6) (layer F.CrtYd) (width 0.12))
  (fp_line (start 0.9 0.6) (end 0.9 -0.6) (layer F.CrtYd) (width 0.12))
  (fp_line (start 0.9 -0.6) (end -0.9 -0.6) (layer F.CrtYd) (width 0.12))
  (fp_line (start -0.9 -0.6) (end -0.9 0.6) (layer F.CrtYd) (width 0.12))
  (fp_line (start -1 -0.4) (end -1 -0.7) (layer F.SilkS) (width 0.15))
  (fp_line (start -1 -0.7) (end -0.7 -0.7) (layer F.SilkS) (width 0.15))
  (pad 5 smd rect (at 0.585 0 180) (size 0.4 0.2) (layers F.Cu F.Paste F.Mask))
  (pad 6 smd rect (at 0.585 -0.4 180) (size 0.4 0.2) (layers F.Cu F.Paste F.Mask))
  (pad 4 smd rect (at 0.585 0.4 180) (size 0.4 0.2) (layers F.Cu F.Paste F.Mask))
  (pad 1 smd rect (at -0.585 -0.4) (size 0.4 0.2) (layers F.Cu F.Paste F.Mask))
  (pad 3 smd rect (at -0.585 0.4) (size 0.4 0.2) (layers F.Cu F.Paste F.Mask))
  (pad 7 smd rect (at 0 0) (size 0.47 0.85) (layers F.Cu F.Paste F.Mask))
  (pad 2 smd rect (at -0.585 0) (size 0.4 0.2) (layers F.Cu F.Paste F.Mask))
)
