(module Longruner_Trimpot (layer F.Cu) (tedit 5F2819D9)
  (fp_text reference REF** (at -2.9 -3.6) (layer F.SilkS)
    (effects (font (size 1 1) (thickness 0.15)))
  )
  (fp_text value Longruner_Trimpot (at 0 -0.5) (layer F.Fab)
    (effects (font (size 1 1) (thickness 0.15)))
  )
  (fp_line (start -3.5 3.5) (end 3.5 3.5) (layer F.SilkS) (width 0.12))
  (fp_line (start 3.5 3.5) (end 3.5 -0.1) (layer F.SilkS) (width 0.12))
  (fp_line (start -3.5 3.5) (end -3.5 -0.1) (layer F.SilkS) (width 0.12))
  (fp_arc (start 0 -0.1) (end 3.5 -0.1) (angle -90) (layer F.SilkS) (width 0.12))
  (fp_arc (start 0 -0.1) (end -3.5 -0.1) (angle 90) (layer F.SilkS) (width 0.12))
  (pad 2 thru_hole circle (at 0 -2.5) (size 1.7 1.7) (drill 1) (layers *.Cu *.Mask))
  (pad 1 thru_hole circle (at -2.5 2.5) (size 1.7 1.7) (drill 1) (layers *.Cu *.Mask))
  (pad 3 thru_hole circle (at 2.5 2.5) (size 1.7 1.7) (drill 1) (layers *.Cu *.Mask))
)
