(module ST4ETA103 (layer F.Cu) (tedit 5FC4DBD7)
  (fp_text reference REF** (at 3.3 -3) (layer F.SilkS)
    (effects (font (size 1 1) (thickness 0.15)))
  )
  (fp_text value ST4ETA103 (at 0 0) (layer F.Fab)
    (effects (font (size 1 1) (thickness 0.15)))
  )
  (fp_line (start -2.5 2.3) (end 2.5 2.3) (layer F.SilkS) (width 0.12))
  (fp_line (start -2.5 -2.3) (end 2.5 -2.3) (layer F.SilkS) (width 0.12))
  (fp_line (start 2.5 -2.3) (end 2.5 2.3) (layer F.SilkS) (width 0.12))
  (fp_line (start -2.5 -2.3) (end -2.5 2.3) (layer F.SilkS) (width 0.12))
  (fp_line (start 2 2.3) (end 2.5 1.8) (layer F.SilkS) (width 0.12))
  (fp_circle (center 2.3 2.7) (end 2.5 2.8) (layer F.SilkS) (width 0.12))
  (pad 1 smd rect (at 1.175 2) (size 1.6 2) (layers F.Cu F.Paste F.Mask))
  (pad 2 smd rect (at 0 -2) (size 2 2) (layers F.Cu F.Paste F.Mask))
  (pad 3 smd rect (at -1.175 2) (size 1.6 2) (layers F.Cu F.Paste F.Mask))
  (model "${KT_LIBS}/3D/ST-4ETA10k_(103).stp"
    (offset (xyz 0 0 2.25))
    (scale (xyz 1 1 1))
    (rotate (xyz 0 0 0))
  )
)
