(module 32K243-40ML4 (layer F.Cu) (tedit 5F08AADF)
  (fp_text reference SMA3 (at -2.06 -1.68) (layer F.SilkS) hide
    (effects (font (size 1 1) (thickness 0.15)))
  )
  (fp_text value 32K243-40ML5 (at 0.1 -3.19) (layer F.Fab)
    (effects (font (size 1 1) (thickness 0.15)))
  )
  (fp_line (start -0.5 -7.25) (end -0.5 7.5) (layer F.CrtYd) (width 0.12))
  (fp_line (start -0.5 7.5) (end 5.75 7.5) (layer F.CrtYd) (width 0.12))
  (fp_line (start 5.75 7.5) (end 5.75 -7.25) (layer F.CrtYd) (width 0.12))
  (fp_line (start 5.75 -7.25) (end -0.5 -7.25) (layer F.CrtYd) (width 0.12))
  (pad 2 thru_hole rect (at 2.8 4.75) (size 5.2 6) (drill 2.3 (offset -0.2 -0.75)) (layers *.Cu *.Mask))
  (pad 2 thru_hole rect (at 2.8 -4.75) (size 5.2 6) (drill 2.3 (offset -0.2 0.75)) (layers *.Cu *.Mask))
  (pad 1 smd rect (at 0.5 0) (size 1 0.25) (layers F.Cu F.Paste F.Mask))
  (model ${KT_LIBS}/3D/32K243-40ML5.STEP
    (offset (xyz -2.1 0 0))
    (scale (xyz 1 1 1))
    (rotate (xyz 0 0 -90))
  )
)
