(module EG1218 (layer F.Cu) (tedit 61768BAB)
  (fp_text reference REF** (at 0.381 -3.175) (layer F.SilkS)
    (effects (font (size 1 1) (thickness 0.15)))
  )
  (fp_text value EG1218 (at 0 0) (layer F.Fab)
    (effects (font (size 0.787402 0.787402) (thickness 0.15)))
  )
  (fp_line (start 5.9 -2.1) (end -5.9 -2.1) (layer F.CrtYd) (width 0.12))
  (fp_line (start 5.9 2.1) (end 5.9 -2.1) (layer F.CrtYd) (width 0.12))
  (fp_line (start -5.9 2.1) (end 5.9 2.1) (layer F.CrtYd) (width 0.12))
  (fp_line (start -5.9 -2.1) (end -5.9 2.1) (layer F.CrtYd) (width 0.12))
  (fp_line (start -5.842 -2.032) (end -0.254 -2.032) (layer F.SilkS) (width 0.127))
  (fp_line (start -0.254 -2.032) (end 0 -1.778) (layer F.SilkS) (width 0.127))
  (fp_line (start 0 -1.778) (end 0.254 -2.032) (layer F.SilkS) (width 0.127))
  (fp_line (start 0.254 -2.032) (end 5.842 -2.032) (layer F.SilkS) (width 0.127))
  (fp_line (start 5.842 -2.032) (end 5.842 -1.524) (layer F.SilkS) (width 0.127))
  (fp_line (start 5.842 -1.524) (end 5.334 -1.524) (layer F.SilkS) (width 0.127))
  (fp_line (start 5.334 -1.524) (end 5.334 1.524) (layer F.SilkS) (width 0.127))
  (fp_line (start 5.334 1.524) (end 5.842 1.524) (layer F.SilkS) (width 0.127))
  (fp_line (start 5.842 1.524) (end 5.842 2.032) (layer F.SilkS) (width 0.127))
  (fp_line (start 5.842 2.032) (end 0.254 2.032) (layer F.SilkS) (width 0.127))
  (fp_line (start 0.254 2.032) (end 0 1.778) (layer F.SilkS) (width 0.127))
  (fp_line (start 0 1.778) (end -0.254 2.032) (layer F.SilkS) (width 0.127))
  (fp_line (start -0.254 2.032) (end -5.842 2.032) (layer F.SilkS) (width 0.127))
  (fp_line (start -5.842 2.032) (end -5.842 1.524) (layer F.SilkS) (width 0.127))
  (fp_line (start -5.842 1.524) (end -5.334 1.524) (layer F.SilkS) (width 0.127))
  (fp_line (start -5.334 1.524) (end -5.334 -1.524) (layer F.SilkS) (width 0.127))
  (fp_line (start -5.334 -1.524) (end -5.842 -1.524) (layer F.SilkS) (width 0.127))
  (fp_line (start -5.842 -1.524) (end -5.842 -2.032) (layer F.SilkS) (width 0.127))
  (fp_line (start -2.286 -1.016) (end 2.286 -1.016) (layer Dwgs.User) (width 0.127))
  (fp_line (start 2.286 -1.016) (end 2.286 1.016) (layer Dwgs.User) (width 0.127))
  (fp_line (start 2.286 1.016) (end -2.286 1.016) (layer Dwgs.User) (width 0.127))
  (fp_line (start -2.286 1.016) (end -2.286 -1.016) (layer Dwgs.User) (width 0.127))
  (fp_line (start -2.032 -1.016) (end -2.032 1.016) (layer F.SilkS) (width 0.127))
  (fp_line (start -1.778 1.016) (end -1.778 -1.016) (layer F.SilkS) (width 0.127))
  (fp_line (start -1.524 -1.016) (end -1.524 1.016) (layer F.SilkS) (width 0.127))
  (fp_line (start -1.27 1.016) (end -1.27 -1.016) (layer F.SilkS) (width 0.127))
  (fp_line (start -1.016 -1.016) (end -1.016 1.016) (layer F.SilkS) (width 0.127))
  (fp_line (start -0.762 1.016) (end -0.762 -1.016) (layer F.SilkS) (width 0.127))
  (fp_line (start -0.508 -1.016) (end -0.508 1.016) (layer F.SilkS) (width 0.127))
  (pad 2 thru_hole circle (at 0 0) (size 1.6764 1.6764) (drill 0.9) (layers *.Cu *.Mask))
  (pad 1 thru_hole circle (at -2.54 0) (size 1.6764 1.6764) (drill 0.9) (layers *.Cu *.Mask))
  (pad 3 thru_hole circle (at 2.54 0) (size 1.6764 1.6764) (drill 0.9) (layers *.Cu *.Mask))
  (model ${KT_LIBS}/3D/EG1218.stp
    (at (xyz 0 0 0))
    (scale (xyz 1 1 1))
    (rotate (xyz 0 0 0))
  )
)
