(module HFCN-7971+ (layer F.Cu) (tedit 5F08A9F7)
  (fp_text reference REF** (at -0.5 -2.5) (layer F.SilkS)
    (effects (font (size 1 1) (thickness 0.15)))
  )
  (fp_text value HFCN-7971+ (at 2.5 -4) (layer F.Fab)
    (effects (font (size 1 1) (thickness 0.15)))
  )
  (fp_line (start -2.25 -1.5) (end -2.25 1.5) (layer F.CrtYd) (width 0.12))
  (fp_line (start -2.25 1.5) (end 2.25 1.5) (layer F.CrtYd) (width 0.12))
  (fp_line (start 2.25 1.5) (end 2.25 -1.5) (layer F.CrtYd) (width 0.12))
  (fp_line (start 2.25 -1.5) (end -2.25 -1.5) (layer F.CrtYd) (width 0.12))
  (fp_line (start 0.75 -0.25) (end 1.25 -0.25) (layer F.SilkS) (width 0.15))
  (fp_line (start 1.25 -0.25) (end 1.25 0.25) (layer F.SilkS) (width 0.15))
  (fp_line (start 1.25 0.25) (end 0.75 0.25) (layer F.SilkS) (width 0.15))
  (fp_line (start 0.75 0.25) (end 0.75 -0.25) (layer F.SilkS) (width 0.15))
  (fp_circle (center -2 2.25) (end -2 2.25) (layer F.SilkS) (width 0.25))
  (pad 1 smd rect (at -0.99 1.14 180) (size 0.61 1.3) (layers F.Cu F.Paste F.Mask))
  (pad 2 smd rect (at 0 1.14 180) (size 0.61 1.3) (layers F.Cu F.Paste F.Mask))
  (pad 3 smd rect (at 0.99 1.14 180) (size 0.61 1.3) (layers F.Cu F.Paste F.Mask))
  (pad 6 smd rect (at -0.99 -1.14) (size 0.61 1.3) (layers F.Cu F.Paste F.Mask))
  (pad 4 smd rect (at 0.99 -1.14) (size 0.61 1.3) (layers F.Cu F.Paste F.Mask))
  (pad 5 smd rect (at 0 -1.14) (size 0.61 1.3) (layers F.Cu F.Paste F.Mask))
  (model ${KT_LIBS}/3D/JC0603C.STEP
    (at (xyz 0 0 0))
    (scale (xyz 2 2 2))
    (rotate (xyz 90 180 90))
  )
)
