(module MC1630-1 (layer F.Cu) (tedit 6012A2C6)
  (clearance 0.1)
  (fp_text reference REF** (at -1.083 -1.766) (layer F.SilkS)
    (effects (font (size 1 1) (thickness 0.15)))
  )
  (fp_text value MC1630-1 (at 0 -0.5) (layer F.Fab)
    (effects (font (size 1 1) (thickness 0.15)))
  )
  (fp_line (start -1.1 1.6) (end -0.7 1.6) (layer F.SilkS) (width 0.12))
  (fp_line (start -1.1 1.2) (end -1.1 1.6) (layer F.SilkS) (width 0.12))
  (fp_line (start -1 1.5) (end -1 -1.5) (layer F.CrtYd) (width 0.12))
  (fp_line (start 1 1.5) (end -1 1.5) (layer F.CrtYd) (width 0.12))
  (fp_line (start 1 -1.5) (end 1 1.5) (layer F.CrtYd) (width 0.12))
  (fp_line (start -1 -1.5) (end 1 -1.5) (layer F.CrtYd) (width 0.12))
  (pad 1 smd rect (at -0.65 0.95) (size 0.3 0.8) (layers F.Cu F.Paste F.Mask))
  (pad 2 smd rect (at 0 0.95) (size 0.3 0.8) (layers F.Cu F.Paste F.Mask))
  (pad 3 smd rect (at 0.65 0.95) (size 0.3 0.8) (layers F.Cu F.Paste F.Mask))
  (pad 4 smd rect (at 0.65 -0.95 180) (size 0.3 0.8) (layers F.Cu F.Paste F.Mask))
  (pad 6 smd rect (at -0.65 -0.95 180) (size 0.3 0.8) (layers F.Cu F.Paste F.Mask))
  (pad 5 smd rect (at 0 -0.95 180) (size 0.3 0.8) (layers F.Cu F.Paste F.Mask))
  (pad 1 smd rect (at 0 0) (size 1.25 0.65) (layers F.Cu F.Paste F.Mask))
)
