(module TCBT-14+ (layer F.Cu) (tedit 5D8E8037)
  (fp_text reference U19 (at -1 -3.3) (layer F.SilkS)
    (effects (font (size 1 1) (thickness 0.15)))
  )
  (fp_text value TCBT-14+ (at 0.05 -4.7) (layer F.Fab)
    (effects (font (size 1 1) (thickness 0.15)))
  )
  (fp_line (start -3 -4) (end -3 -3) (layer F.CrtYd) (width 0.12))
  (fp_line (start 3 -4) (end -3 -4) (layer F.CrtYd) (width 0.12))
  (fp_line (start 3 4) (end 3 -4) (layer F.CrtYd) (width 0.12))
  (fp_line (start -3 4) (end 3 4) (layer F.CrtYd) (width 0.12))
  (fp_line (start -3 -3) (end -3 4) (layer F.CrtYd) (width 0.12))
  (fp_circle (center -2.45 2.95) (end -2.45 2.95) (layer F.SilkS) (width 0.5))
  (pad 4 smd rect (at 0 1.2275) (size 0.79 2.455) (layers F.Cu F.Paste F.Mask))
  (pad 1 smd rect (at -1.27 1.615) (size 0.79 1.68) (layers F.Cu F.Paste F.Mask))
  (pad 2 smd rect (at 1.27 1.615) (size 0.79 1.68) (layers F.Cu F.Paste F.Mask))
  (pad 4 smd rect (at -1.27 -1.615 180) (size 0.79 1.68) (layers F.Cu F.Paste F.Mask))
  (pad 3 smd rect (at 0.635 -1.615 180) (size 2.06 1.68) (layers F.Cu F.Paste F.Mask))
  (pad 4 smd rect (at 0 0 180) (size 3.33 0.69) (layers F.Cu F.Paste F.Mask))
  (pad 4 thru_hole circle (at 0 0 180) (size 0.6 0.6) (drill 0.3) (layers *.Cu F.Mask))
  (pad 4 thru_hole circle (at -1.27 0 180) (size 0.6 0.6) (drill 0.3) (layers *.Cu F.Mask))
  (pad 4 thru_hole circle (at 1.27 0 180) (size 0.6 0.6) (drill 0.3) (layers *.Cu F.Mask))
  (pad 4 thru_hole circle (at 0 2.1 180) (size 0.6 0.6) (drill 0.3) (layers *.Cu F.Mask))
  (pad 4 thru_hole circle (at 0 1.05 180) (size 0.6 0.6) (drill 0.3) (layers *.Cu F.Mask))
)
