(module Paderborn_RX (layer F.Cu) (tedit 60007819)
  (clearance 0.05)
  (fp_text reference REF** (at -0.141 -0.99) (layer F.SilkS)
    (effects (font (size 1 1) (thickness 0.15)))
  )
  (fp_text value Paderborn_RX (at -0.401 -0.27) (layer F.Fab)
    (effects (font (size 1 1) (thickness 0.15)))
  )
  (fp_line (start 5.1 0) (end 5.1 1.54) (layer F.SilkS) (width 0.01))
  (fp_line (start 5.1 1.54) (end 0 1.54) (layer F.SilkS) (width 0.01))
  (fp_line (start 0 1.54) (end 0 0) (layer F.SilkS) (width 0.01))
  (fp_line (start 0 0) (end 5.1 0) (layer F.SilkS) (width 0.01))
  (fp_text user Light (at 0.63 0.77 90) (layer F.SilkS)
    (effects (font (size 0.1 0.1) (thickness 0.01)))
  )
  (fp_text user "5.1 mm x 1.54 mm" (at 2.897 0.73) (layer Dwgs.User)
    (effects (font (size 0.25 0.25) (thickness 0.05)))
  )
  (fp_line (start 0 1.9) (end 5.45 1.9) (layer F.CrtYd) (width 0.12))
  (fp_line (start 5.45 1.9) (end 5.45 -0.35) (layer F.CrtYd) (width 0.12))
  (fp_line (start 5.45 -0.35) (end -0.35 -0.35) (layer F.CrtYd) (width 0.12))
  (fp_line (start -0.35 -0.35) (end -0.35 1.9) (layer F.CrtYd) (width 0.12))
  (fp_line (start -0.35 1.9) (end 0 1.9) (layer F.CrtYd) (width 0.12))
  (fp_text user S:1310nm (at -0.785285 0.898) (layer F.SilkS)
    (effects (font (size 0.2 0.2) (thickness 0.05)))
  )
  (fp_text user PL:1310nm (at -0.871 0.298) (layer F.SilkS)
    (effects (font (size 0.2 0.2) (thickness 0.05)))
  )
  (fp_text user PL:1310nm (at -0.871 1.198) (layer F.SilkS)
    (effects (font (size 0.2 0.2) (thickness 0.05)))
  )
  (fp_text user PL:1550nm (at -0.871 -0.002) (layer F.SilkS)
    (effects (font (size 0.2 0.2) (thickness 0.05)))
  )
  (fp_text user S:1550nm (at -0.785285 0.598) (layer F.SilkS)
    (effects (font (size 0.2 0.2) (thickness 0.05)))
  )
  (fp_text user PL:1550nm (at -0.871 1.498) (layer F.SilkS)
    (effects (font (size 0.2 0.2) (thickness 0.05)))
  )
  (pad 30 smd rect (at 1.58628 -0.5) (size 0.1 0.1) (layers F.Cu F.Mask))
  (pad "" smd rect (at 1.78628 0.3) (size 0.06 0.1) (layers Dwgs.User))
  (pad "" smd rect (at 1.78628 1.245) (size 0.06 0.1) (layers Dwgs.User))
  (pad "" smd rect (at 4.698 0.15) (size 0.075 0.075) (layers Dwgs.User))
  (pad "" smd rect (at 1.68628 0.3) (size 0.06 0.1) (layers Dwgs.User))
  (pad "" smd rect (at 1.58628 0.3) (size 0.06 0.1) (layers Dwgs.User))
  (pad "" smd rect (at 1.68628 1.245) (size 0.06 0.1) (layers Dwgs.User))
  (pad "" smd rect (at 1.58628 1.245) (size 0.06 0.1) (layers Dwgs.User))
  (pad "" smd circle (at 4.9985 0.77) (size 0.075 0.075) (layers Dwgs.User))
  (pad "" smd circle (at 4.9985 0.67) (size 0.075 0.075) (layers Dwgs.User))
  (pad "" smd circle (at 4.9985 0.57) (size 0.075 0.075) (layers Dwgs.User))
  (pad "" smd circle (at 4.9985 0.87) (size 0.075 0.075) (layers Dwgs.User))
  (pad "" smd circle (at 4.9985 0.97) (size 0.075 0.075) (layers Dwgs.User))
  (pad "" smd rect (at 4.598 0.15) (size 0.075 0.075) (layers Dwgs.User))
  (pad "" smd rect (at 3.01563 0.15) (size 0.075 0.075) (layers Dwgs.User))
  (pad "" smd rect (at 3.11563 0.15) (size 0.075 0.075) (layers Dwgs.User))
  (pad "" smd rect (at 3.51563 0.15) (size 0.075 0.075) (layers Dwgs.User))
  (pad "" smd rect (at 3.61563 0.15) (size 0.075 0.075) (layers Dwgs.User))
  (pad "" smd rect (at 3.51563 1.39) (size 0.075 0.075) (layers Dwgs.User))
  (pad "" smd rect (at 3.61563 1.39) (size 0.075 0.075) (layers Dwgs.User))
  (pad "" smd rect (at 3.11563 1.39) (size 0.075 0.075) (layers Dwgs.User))
  (pad "" smd rect (at 3.01563 1.39) (size 0.075 0.075) (layers Dwgs.User))
  (pad "" smd rect (at 4.598 1.39) (size 0.075 0.075) (layers Dwgs.User))
  (pad "" smd rect (at 4.698 1.39) (size 0.075 0.075) (layers Dwgs.User))
  (pad "" smd circle (at 4.12367 1.39) (size 0.075 0.075) (layers Dwgs.User))
  (pad "" smd circle (at 4.22367 1.39) (size 0.075 0.075) (layers Dwgs.User))
  (pad "" smd circle (at 4.32367 1.39) (size 0.075 0.075) (layers Dwgs.User))
  (pad "" smd circle (at 4.42367 1.39) (size 0.075 0.075) (layers Dwgs.User))
  (pad "" smd circle (at 4.02367 1.39) (size 0.075 0.075) (layers Dwgs.User))
  (pad "" smd circle (at 3.92367 1.39) (size 0.075 0.075) (layers Dwgs.User))
  (pad "" smd circle (at 3.82367 1.39) (size 0.075 0.075) (layers Dwgs.User))
  (pad "" smd rect (at 0.7835 1.0875) (size 0.1 0.1) (layers Dwgs.User))
  (pad "" smd rect (at 0.7835 0.9605) (size 0.1 0.1) (layers Dwgs.User))
  (pad "" smd rect (at 0.7835 0.8335) (size 0.1 0.1) (layers Dwgs.User))
  (pad "" smd rect (at 0.7835 0.7065) (size 0.1 0.1) (layers Dwgs.User))
  (pad "" smd rect (at 0.7835 0.5795) (size 0.1 0.1) (layers Dwgs.User))
  (pad "" smd rect (at 0.7835 0.4525) (size 0.1 0.1) (layers Dwgs.User))
  (pad 29 smd rect (at 1.88628 -0.5) (size 0.1 0.1) (layers F.Cu F.Mask))
  (pad 28 smd rect (at 2.18628 -0.5) (size 0.1 0.1) (layers F.Cu F.Mask))
  (pad 3 smd rect (at 2.18628 2.04) (size 0.1 0.1) (layers F.Cu F.Mask))
  (pad 2 smd rect (at 1.88628 2.04) (size 0.1 0.1) (layers F.Cu F.Mask))
  (pad 1 smd rect (at 1.58628 2.04) (size 0.1 0.1) (layers F.Cu F.Mask))
  (pad 27 smd rect (at 2.91563 -0.5) (size 0.1 0.1) (layers F.Cu F.Mask))
  (pad 26 smd rect (at 3.21563 -0.5) (size 0.1 0.1) (layers F.Cu F.Mask))
  (pad 25 smd rect (at 3.41563 -0.5) (size 0.1 0.1) (layers F.Cu F.Mask))
  (pad 24 smd rect (at 3.71563 -0.5) (size 0.1 0.1) (layers F.Cu F.Mask))
  (pad 23 smd rect (at 4.623 -0.5) (size 0.1 0.1) (layers F.Cu F.Mask))
  (pad 22 smd rect (at 4.923 -0.5) (size 0.1 0.1) (layers F.Cu F.Mask))
  (pad 20 smd rect (at 5.2985 0.57) (size 0.1 0.1) (layers F.Cu F.Mask))
  (pad 21 smd rect (at 5.2985 0.07) (size 0.1 0.1) (layers F.Cu F.Mask))
  (pad 18 smd rect (at 5.2985 0.97) (size 0.1 0.1) (layers F.Cu F.Mask))
  (pad 17 smd rect (at 5.2985 1.47) (size 0.1 0.1) (layers F.Cu F.Mask))
  (pad 16 smd rect (at 4.923 2.04) (size 0.1 0.1) (layers F.Cu F.Mask))
  (pad 14 smd rect (at 4.623 2.04) (size 0.1 0.1) (layers F.Cu F.Mask))
  (pad 7 smd rect (at 3.61563 2.04) (size 0.1 0.1) (layers F.Cu F.Mask))
  (pad 5 smd rect (at 3.11563 2.04) (size 0.1 0.1) (layers F.Cu F.Mask))
  (pad 6 smd rect (at 3.31563 2.04) (size 0.1 0.1) (layers F.Cu F.Mask))
  (pad 4 smd rect (at 2.81563 2.04) (size 0.1 0.1) (layers F.Cu F.Mask))
  (pad 8 smd rect (at 3.61563 2.04) (size 0.1 0.1) (layers F.Cu F.Mask))
  (pad 9 smd rect (at 3.81563 2.04) (size 0.1 0.1) (layers F.Cu F.Mask))
  (pad 10 smd rect (at 4.01563 2.04) (size 0.1 0.1) (layers F.Cu F.Mask))
  (pad 12 smd rect (at 4.21563 2.04) (size 0.1 0.1) (layers F.Cu F.Mask))
  (pad 13 smd rect (at 4.41563 2.04) (size 0.1 0.1) (layers F.Cu F.Mask))
  (pad 11 smd rect (at 3.61563 2.04) (size 0.1 0.1) (layers F.Cu F.Mask))
  (pad 15 smd rect (at 4.623 2.04) (size 0.1 0.1) (layers F.Cu F.Mask))
  (pad 19 smd rect (at 5.2985 1.47) (size 0.1 0.1) (layers F.Cu F.Mask))
  (pad 17 smd rect (at 5.2985 0.07) (size 0.1 0.1) (layers F.Cu F.Mask))
  (pad 11 smd rect (at 4.623 2.04) (size 0.1 0.1) (layers F.Cu F.Mask))
)
